Database for Developing Transitivity Methodology in Network Meta-Analysis • tracenma
…
get.dataset.index(pmid = c(16951908, 17932160))
#>    nmadb.ID     PMID  First.Author Year    Journal.Name  Outcome.Type
#> 11   480655 16951908   Vestergaard 2007  Osteoporos Int     Objective
#> 12   501309 17932160           Lam 2007             BMJ     Objective
                                                                                                                                                    
#>    Intervention.Comparison.Type Includes.ToC.where Source.ToC
#> 11   pharmacological vs placebo          Main text    Table 1
#> 12   non-pharmacological vs any          Main text    Table 1

Access a specific dataset

Use the function get.dataset to get the dataset with the extracted characteristics of a specific systematic review. For instance, let us access the dataset of the systematic review with PMID number 16951908 using the default arguments:

get.dataset(pmid = 16951908)
#> # A tibble: 25 × 12
#>    `trial (reference)`   treat1 treat2    arm1    arm2    sex sample.size h.rPTH   calcium vitamin.D duration quality
#>    <chr>                  <dbl>  <dbl>   <chr>   <chr>  <chr>       <dbl>  <chr>     <dbl>     <dbl>    <dbl>   <dbl>
#>  1 Finkelstein 1998 (26)      1      2 control  PTH 40 female          43   1-34        NA        NA       12       2
#>  2 Lane 1998 (42)             1      3 control  PTH 25 female          51   1-34      1500       800       12       3
#>  3 Kurland 2000 (33)          1      4 control  PTH 32   male          23   1-34      1500       400       18       3
#>  4 Cosman 2001 (24)           1      3 control  PTH 25 female          52   1-34      1500       800       36       3
#>  5 Neer 2001 (5)              1      2 control  PTH 40 female         882   1-34      1000       400       21       3
#>  6 Neer 2001 (5)              1      5 control  PTH 20 female         892   1-34      1000       400       21       3
#>  7 Neer 2001 (5)              2      5  PTH 40  PTH 20 female         878   1-34      1000       400       21       3
#>  8 Body 2002 (43)             1      2 control  PTH 40 female         146   1-34      1000       400       12       4
#>  9 Finkelstein 2003 (28)      1      2 control  PTH 40   male          48   1-34      1000       400       30       3
#> 10 Finkelstein 2003 (28)      1      6 control PTH+ALN   male          53   1-34      1000       400       30       3
#> # ℹ 15 more rows
#> # ℹ Use `print(n = ...)` to see more rows
…
